Proyecto_2/uP_tb.vcd
$date
	Sun Nov 22 17:09:36 2020
$end
$version
	Icarus Verilog
$end
$timescale
	1ps
$end
$scope module testbench $end
$var wire 4 ! data_bus [3:0] $end
$var wire 1 " z_flag $end
$var wire 8 # program_byte [7:0] $end
$var wire 1 $ phase $end
$var wire 4 % oprnd [3:0] $end
$var wire 4 & instr [3:0] $end
$var wire 1 ' c_flag $end
$var wire 12 ( address_RAM [11:0] $end
$var wire 4 ) accu [3:0] $end
$var wire 12 * PC [11:0] $end
$var wire 4 + FF_out [3:0] $end
$var reg 1 , clock $end
$var reg 4 - pushbuttons [3:0] $end
$var reg 1 . reset $end
$var integer 32 / immediateDelay [31:0] $end
$var integer 32 0 jumpDelay [31:0] $end
$var integer 32 1 memoryDelay [31:0] $end
$var integer 32 2 nota [31:0] $end
$scope module uPmodule $end
$var wire 1 , clock $end
$var wire 4 3 data_bus [3:0] $end
$var wire 4 4 pushbuttons [3:0] $end
$var wire 1 . reset $end
$var wire 1 " z_flag $end
$var wire 1 5 weRAM $end
$var wire 8 6 program_byte [7:0] $end
$var wire 1 $ phase $end
$var wire 4 7 oprnd [3:0] $end
$var wire 1 8 oeOprnd $end
$var wire 1 9 oeIN $end
$var wire 1 : oeALU $end
$var wire 1 ; loadPC $end
$var wire 1 < loadOut $end
$var wire 1 = loadFlags $end
$var wire 1 > loadA $end
$var wire 4 ? instr [3:0] $end
$var wire 1 @ incPC $end
$var wire 1 A csRAM $end
$var wire 1 ' c_flag $end
$var wire 1 B c $end
$var wire 4 C alu_out [3:0] $end
$var wire 12 D address_RAM [11:0] $end
$var wire 4 E accu [3:0] $end
$var wire 1 F Zero $end
$var wire 3 G Sel [2:0] $end
$var wire 12 H PC [11:0] $end
$var wire 4 I FF_out [3:0] $end
$scope module ALU $end
$var wire 4 J BUFFER [3:0] $end
$var wire 1 F ZERO $end
$var wire 4 K SAL [3:0] $end
$var wire 3 L S [2:0] $end
$var wire 1 B C $end
$var wire 4 M ACCU [3:0] $end
$var reg 5 N OF [4:0] $end
$upscope $end
$scope module Acumulator $end
$var wire 4 O ALU [3:0] $end
$var wire 1 , clk $end
$var wire 1 . reset $end
$var wire 1 > EN $end
$var reg 4 P ACCU [3:0] $end
$upscope $end
$scope module Bus_driveF $end
$var wire 4 Q Y [3:0] $end
$var wire 4 R I [3:0] $end
$var wire 1 8 EN $end
$upscope $end
$scope module Bus_driverA $end
$var wire 4 S I [3:0] $end
$var wire 4 T Y [3:0] $end
$var wire 1 : EN $end
$upscope $end
$scope module C_flag $end
$var wire 1 B D $end
$var wire 1 , clk $end
$var wire 1 . reset $end
$var wire 1 = enable $end
$var reg 1 ' Q $end
$upscope $end
$scope module Contador $end
$var wire 1 , clk $end
$var wire 12 U load [11:0] $end
$var wire 1 . rst $end
$var wire 1 ; blo $end
$var wire 1 @ EN $end
$var reg 12 V val [11:0] $end
$upscope $end
$scope module Fetch $end
$var wire 1 W EN $end
$var wire 1 , clk $end
$var wire 1 . reset $end
$var wire 4 X oprnd [3:0] $end
$var wire 4 Y instr [3:0] $end
$var wire 8 Z D [7:0] $end
$scope module A1 $end
$var wire 4 [ C [3:0] $end
$var wire 1 W EN $end
$var wire 1 , clk $end
$var wire 1 . reset $end
$var reg 4 \ D [3:0] $end
$upscope $end
$scope module B1 $end
$var wire 4 ] C [3:0] $end
$var wire 1 W EN $end
$var wire 1 , clk $end
$var wire 1 . reset $end
$var reg 4 ^ D [3:0] $end
$upscope $end
$upscope $end
$scope module IN $end
$var wire 4 _ I [3:0] $end
$var wire 4 ` Y [3:0] $end
$var wire 1 9 EN $end
$upscope $end
$scope module Out $end
$var wire 4 a C [3:0] $end
$var wire 1 , clk $end
$var wire 1 . reset $end
$var wire 1 < EN $end
$var reg 4 b D [3:0] $end
$upscope $end
$scope module Phase $end
$var wire 1 , clk $end
$var wire 1 c d $end
$var wire 1 d enable $end
$var wire 1 . reset $end
$var wire 1 $ q $end
$scope module f1 $end
$var wire 1 c D $end
$var wire 1 , clk $end
$var wire 1 d enable $end
$var wire 1 . reset $end
$var reg 1 $ Q $end
$upscope $end
$upscope $end
$scope module Program_Rom $end
$var wire 8 e D [7:0] $end
$var wire 12 f address [11:0] $end
$upscope $end
$scope module Ram $end
$var wire 12 g address [11:0] $end
$var wire 4 h data_bus [3:0] $end
$var wire 1 5 weRAM $end
$var wire 1 A csRAM $end
$var reg 4 i salida [3:0] $end
$upscope $end
$scope module Zflag $end
$var wire 1 F D $end
$var wire 1 , clk $end
$var wire 1 . reset $end
$var wire 1 = enable $end
$var reg 1 " Q $end
$upscope $end
$scope module decode $end
$var wire 1 ' c_flag $end
$var wire 4 j instr [3:0] $end
$var wire 1 $ phase $end
$var wire 1 " z_flag $end
$var wire 1 5 weRAM $end
$var wire 1 8 oeOprnd $end
$var wire 1 9 oeIN $end
$var wire 1 : oeALU $end
$var wire 1 ; loadPC $end
$var wire 1 < loadOut $end
$var wire 1 = loadFlags $end
$var wire 1 > loadA $end
$var wire 1 @ incPC $end
$var wire 7 k entori [6:0] $end
$var wire 1 A csRAM $end
$var wire 3 l S [2:0] $end
$var reg 13 m shuppatsu [12:0] $end
$upscope $end
$upscope $end
$upscope $end
$enddefinitions $end
#0
$dumpvars
bx m
bx l
bx k
bx j
bx i
bx h
bx g
bx f
bx e
1d
xc
bx b
bx a
bx `
b110 _
bx ^
bx ]
bx \
bx [
bx Z
bx Y
bx X
xW
bx V
bx U
bx T
bx S
bx R
bx Q
bx P
bx O
bx N
bx M
bx L
bx K
bx J
bx I
bx H
bx G
xF
bx E
bx D
bx C
xB
xA
x@
bx ?
x>
x=
x<
x;
x:
x9
x8
bx 7
bx 6
x5
b110 4
bx 3
b0 2
b100010100 1
b1010010000 0
b10000 /
0.
b110 -
0,
bx +
bx *
bx )
bx (
x'
bx &
bx %
x$
bx #
x"
bx !
$end
#2
1F
b0 !
b0 3
b0 J
b0 Q
b0 T
b0 `
b0 a
b0 h
b0 C
b0 K
b0 O
b0 S
0B
1@
0;
0>
0=
b0 G
b0 L
b0 l
0A
05
1:
09
08
0<
b0 N
b1000000001000 m
b1111 ]
b100 [
1c
1W
b0 &
b0 ?
b0 Y
b0 \
b0 j
b0 %
b0 7
b0 R
b0 X
b0 ^
b1001111 (
b1001111 D
b1001111 U
b1001111 g
b1001111 #
b1001111 6
b1001111 Z
b1001111 e
b0 *
b0 H
b0 V
b0 f
b0 )
b0 E
b0 M
b0 P
b0 +
b0 I
b0 b
0'
0"
b0 k
0$
1.
#3
0.
#5
0F
b1111 C
b1111 K
b1111 O
b1111 S
1"
b1111 N
b1111 !
b1111 3
b1111 J
b1111 Q
b1111 T
b1111 `
b1111 a
b1111 h
0@
1>
1=
b10 G
b10 L
b10 l
0:
18
b11010000010 m
b1101 [
0c
0W
b11011111 #
b11011111 6
b11011111 Z
b11011111 e
b1 *
b1 H
b1 V
b1 f
b111111011111 (
b111111011111 D
b111111011111 U
b111111011111 g
b1111 %
b1111 7
b1111 R
b1111 X
b1111 ^
b100 &
b100 ?
b100 Y
b100 \
b100 j
b100011 k
1$
1,
#10
0,
#15
b1111 !
b1111 3
b1111 J
b1111 Q
b1111 T
b1111 `
b1111 a
b1111 h
1@
0>
0=
b0 G
b0 L
b0 l
1:
08
b1000000001000 m
1c
1W
b1111 )
b1111 E
b1111 M
b1111 P
0"
b100000 k
0$
1,
#16
b1000110 2
#20
0,
#25
0@
1<
b1001 m
b1 ]
b101 [
0c
0W
b111101010001 (
b111101010001 D
b111101010001 U
b111101010001 g
b1010001 #
b1010001 6
b1010001 Z
b1010001 e
b10 *
b10 H
b10 V
b10 f
b1101 &
b1101 ?
b1101 Y
b1101 \
b1101 j
b1101001 k
1$
1,
#30
0,
#35
1@
0<
b1000000001000 m
1c
1W
b1111 +
b1111 I
b1111 b
b1101000 k
0$
1,
#36
b1100111 2
#40
0,
#45
b110 C
b110 K
b110 O
b110 S
b110 N
b110 !
b110 3
b110 J
b110 Q
b110 T
b110 `
b110 a
b110 h
0@
1>
1=
b10 G
b10 L
b10 l
0:
19
b11010000100 m
b0 ]
b100 [
0c
0W
b1000000 #
b1000000 6
b1000000 Z
b1000000 e
b11 *
b11 H
b11 V
b11 f
b101000000 (
b101000000 D
b101000000 U
b101000000 g
b1 %
b1 7
b1 R
b1 X
b1 ^
b101 &
b101 ?
b101 Y
b101 \
b101 j
b101001 k
1$
1,
#50
0,
#55
b110 !
b110 3
b110 J
b110 Q
b110 T
b110 `
b110 a
b110 h
1@
0>
0=
b0 G
b0 L
b0 l
1:
09
b1000000001000 m
1c
1W
b110 )
b110 E
b110 M
b110 P
b101000 k
0$
1,
#56
b10001000 2
#60
0,
#65
1F
b0 C
b0 K
b0 O
b0 S
b0 N
b0 !
b0 3
b0 J
b0 Q
b0 T
b0 `
b0 a
b0 h
0@
1>
1=
b10 G
b10 L
b10 l
0:
18
b11010000010 m
b1111 ]
0c
0W
b1001111 #
b1001111 6
b1001111 Z
b1001111 e
b100 *
b100 H
b100 V
b100 f
b1001111 (
b1001111 D
b1001111 U
b1001111 g
b0 %
b0 7
b0 R
b0 X
b0 ^
b100 &
b100 ?
b100 Y
b100 \
b100 j
b100001 k
1$
1,
#70
0,
#75
b0 !
b0 3
b0 J
b0 Q
b0 T
b0 `
b0 a
b0 h
1@
0>
0=
b0 G
b0 L
b0 l
1:
08
b1000000001000 m
1c
1W
b0 )
b0 E
b0 M
b0 P
1"
b100010 k
0$
1,
#80
0,
#85
0F
b1111 C
b1111 K
b1111 O
b1111 S
b1111 N
b1111 !
b1111 3
b1111 J
b1111 Q
b1111 T
b1111 `
b1111 a
b1111 h
0@
1>
1=
b10 G
b10 L
b10 l
0:
18
b11010000010 m
b1010 ]
b1010 [
0c
0W
b10101010 #
b10101010 6
b10101010 Z
b10101010 e
b101 *
b101 H
b101 V
b101 f
b111110101010 (
b111110101010 D
b111110101010 U
b111110101010 g
b1111 %
b1111 7
b1111 R
b1111 X
b1111 ^
b100011 k
1$
1,
#90
0,
#95
b1111 !
b1111 3
b1111 J
b1111 Q
b1111 T
b1111 `
b1111 a
b1111 h
1@
0>
0=
b0 G
b0 L
b0 l
1:
08
b1000000001000 m
1c
1W
b1111 )
b1111 E
b1111 M
b1111 P
0"
b100000 k
0$
1,
#100
0,
#105
b1001 C
b1001 K
b1001 O
b1001 S
1B
b11001 N
b1010 !
b1010 3
b1010 J
b1010 Q
b1010 T
b1010 `
b1010 a
b1010 h
0@
1>
1=
b11 G
b11 L
b11 l
0:
18
b11011000010 m
b1000 ]
b10 [
0c
0W
b101000 #
b101000 6
b101000 Z
b101000 e
b110 *
b110 H
b110 V
b110 f
b101000101000 (
b101000101000 D
b101000101000 U
b101000101000 g
b1010 %
b1010 7
b1010 R
b1010 X
b1010 ^
b1010 &
b1010 ?
b1010 Y
b1010 \
b1010 j
b1010001 k
1$
1,
#110
0,
#115
0B
b1001 !
b1001 3
b1001 J
b1001 Q
b1001 T
b1001 `
b1001 a
b1001 h
b1001 C
b1001 K
b1001 O
b1001 S
1@
0>
0=
b0 G
b0 L
b0 l
1:
08
b1001 N
b1000000001000 m
1c
1W
b1001 )
b1001 E
b1001 M
b1001 P
1'
b1010100 k
0$
1,
#116
b10101001 2
#120
0,
#125
b1 C
b1 K
b1 O
b1 S
0'
b1 N
b1000 !
b1000 3
b1000 J
b1000 Q
b1000 T
b1000 `
b1000 a
b1000 h
0@
1=
b1 G
b1 L
b1 l
0:
18
b1001000010 m
b1010 ]
b100 [
0c
0W
b1001010 #
b1001010 6
b1001010 Z
b1001010 e
b111 *
b111 H
b111 V
b111 f
b100001001010 (
b100001001010 D
b100001001010 U
b100001001010 g
b1000 %
b1000 7
b1000 R
b1000 X
b1000 ^
b10 &
b10 ?
b10 Y
b10 \
b10 j
b10001 k
1$
1,
#130
0,
#135
b1001 C
b1001 K
b1001 O
b1001 S
b1001 N
b1001 !
b1001 3
b1001 J
b1001 Q
b1001 T
b1001 `
b1001 a
b1001 h
1@
0=
b0 G
b0 L
b0 l
1:
08
b1000000001000 m
1c
1W
b10000 k
0$
1,
#136
b11001010 2
#140
0,
#145
b1010 C
b1010 K
b1010 O
b1010 S
b1010 N
b1010 !
b1010 3
b1010 J
b1010 Q
b1010 T
b1010 `
b1010 a
b1010 h
0@
1>
1=
b10 G
b10 L
b10 l
0:
18
b11010000010 m
b1100 ]
b10 [
0c
0W
b101100 #
b101100 6
b101100 Z
b101100 e
b1000 *
b1000 H
b1000 V
b1000 f
b101000101100 (
b101000101100 D
b101000101100 U
b101000101100 g
b1010 %
b1010 7
b1010 R
b1010 X
b1010 ^
b100 &
b100 ?
b100 Y
b100 \
b100 j
b100001 k
1$
1,
#150
0,
#155
b1010 !
b1010 3
b1010 J
b1010 Q
b1010 T
b1010 `
b1010 a
b1010 h
1@
0>
0=
b0 G
b0 L
b0 l
1:
08
b1000000001000 m
1c
1W
b1010 )
b1010 E
b1010 M
b1010 P
b100000 k
0$
1,
#160
0,
#165
b1110 C
b1110 K
b1110 O
b1110 S
1B
b11110 N
b1100 !
b1100 3
b1100 J
b1100 Q
b1100 T
b1100 `
b1100 a
b1100 h
0@
1=
b1 G
b1 L
b1 l
0:
18
b1001000010 m
b1 ]
b1010 [
0c
0W
b10100001 #
b10100001 6
b10100001 Z
b10100001 e
b1001 *
b1001 H
b1001 V
b1001 f
b110010100001 (
b110010100001 D
b110010100001 U
b110010100001 g
b1100 %
b1100 7
b1100 R
b1100 X
b1100 ^
b10 &
b10 ?
b10 Y
b10 \
b10 j
b10001 k
1$
1,
#170
0,
#175
b1010 C
b1010 K
b1010 O
b1010 S
0B
b1010 N
b1010 !
b1010 3
b1010 J
b1010 Q
b1010 T
b1010 `
b1010 a
b1010 h
1@
0=
b0 G
b0 L
b0 l
1:
08
b1000000001000 m
1c
1W
1'
b10100 k
0$
1,
#176
b11101011 2
#180
0,
#185
b1011 C
b1011 K
b1011 O
b1011 S
0'
b1011 N
b1 !
b1 3
b1 J
b1 Q
b1 T
b1 `
b1 a
b1 h
0@
1>
1=
b11 G
b11 L
b11 l
0:
18
b11011000010 m
b1011 ]
b1110 [
0c
0W
b11101011 #
b11101011 6
b11101011 Z
b11101011 e
b1010 *
b1010 H
b1010 V
b1010 f
b111101011 (
b111101011 D
b111101011 U
b111101011 g
b1 %
b1 7
b1 R
b1 X
b1 ^
b1010 &
b1010 ?
b1010 Y
b1010 \
b1010 j
b1010001 k
1$
1,
#190
0,
#195
b1011 !
b1011 3
b1011 J
b1011 Q
b1011 T
b1011 `
b1011 a
b1011 h
b1011 C
b1011 K
b1011 O
b1011 S
1@
0>
0=
b0 G
b0 L
b0 l
1:
08
b1011 N
b1000000001000 m
1c
1W
b1011 )
b1011 E
b1011 M
b1011 P
b1010000 k
0$
1,
#196
b100001100 2
#200
0,
#205
b100 C
b100 K
b100 O
b100 S
b100 N
0@
1>
1=
b100 G
b100 L
b100 l
0:
18
b11100000010 m
b0 ]
b1101 [
0c
0W
b11010000 #
b11010000 6
b11010000 Z
b11010000 e
b1011 *
b1011 H
b1011 V
b1011 f
b101111010000 (
b101111010000 D
b101111010000 U
b101111010000 g
b1011 %
b1011 7
b1011 R
b1011 X
b1011 ^
b1110 &
b1110 ?
b1110 Y
b1110 \
b1110 j
b1110001 k
1$
1,
#210
0,
#215
0F
b100 !
b100 3
b100 J
b100 Q
b100 T
b100 `
b100 a
b100 h
b100 C
b100 K
b100 O
b100 S
1@
0>
0=
b0 G
b0 L
b0 l
1:
08
b100 N
b1000000001000 m
1c
1W
b100 )
b100 E
b100 M
b100 P
b1110000 k
0$
1,
#216
b101001110 2
#220
0,
#225
0@
1<
b1001 m
b101 [
0c
0W
b1010000 #
b1010000 6
b1010000 Z
b1010000 e
b1100 *
b1100 H
b1100 V
b1100 f
b1010000 (
b1010000 D
b1010000 U
b1010000 g
b0 %
b0 7
b0 R
b0 X
b0 ^
b1101 &
b1101 ?
b1101 Y
b1101 \
b1101 j
b1101001 k
1$
1,
#230
0,
#235
1@
0<
b1000000001000 m
1c
1W
b100 +
b100 I
b100 b
b1101000 k
0$
1,
#236
b1110 -
b1110 4
b1110 _
b101101111 2
#240
0,
#245
b1110 C
b1110 K
b1110 O
b1110 S
b1110 N
b1110 !
b1110 3
b1110 J
b1110 Q
b1110 T
b1110 `
b1110 a
b1110 h
0@
1>
1=
b10 G
b10 L
b10 l
0:
19
b11010000100 m
b111 [
0c
0W
b1110000 (
b1110000 D
b1110000 U
b1110000 g
b1110000 #
b1110000 6
b1110000 Z
b1110000 e
b1101 *
b1101 H
b1101 V
b1101 f
b101 &
b101 ?
b101 Y
b101 \
b101 j
b101001 k
1$
1,
#250
0,
#255
b1110 !
b1110 3
b1110 J
b1110 Q
b1110 T
b1110 `
b1110 a
b1110 h
1@
0>
0=
b0 G
b0 L
b0 l
1:
09
b1000000001000 m
1c
1W
b1110 )
b1110 E
b1110 M
b1110 P
b101000 k
0$
1,
#256
b110010000 2
#260
0,
#265
1A
15
b1000000111000 m
b0 [
0c
0W
b0 (
b0 D
b0 U
b0 g
b0 #
b0 6
b0 Z
b0 e
b1110 *
b1110 H
b1110 V
b1110 f
b111 &
b111 ?
b111 Y
b111 \
b111 j
b111001 k
1$
1,
#270
0,
#275
0A
05
b1000000001000 m
b1111 ]
b100 [
1c
1W
b1001111 (
b1001111 D
b1001111 U
b1001111 g
b1001111 #
b1001111 6
b1001111 Z
b1001111 e
b1111 *
b1111 H
b1111 V
b1111 f
b111000 k
0$
1,
#280
0,
#285
b1111 C
b1111 K
b1111 O
b1111 S
b1111 N
b1111 !
b1111 3
b1111 J
b1111 Q
b1111 T
b1111 `
b1111 a
b1111 h
0@
1>
1=
b10 G
b10 L
b10 l
0:
18
b11010000010 m
b1 ]
b111 [
0c
0W
b1110001 #
b1110001 6
b1110001 Z
b1110001 e
b10000 *
b10000 H
b10000 V
b10000 f
b111101110001 (
b111101110001 D
b111101110001 U
b111101110001 g
b1111 %
b1111 7
b1111 R
b1111 X
b1111 ^
b100 &
b100 ?
b100 Y
b100 \
b100 j
b100001 k
1$
1,
#290
0,
#295
b1111 !
b1111 3
b1111 J
b1111 Q
b1111 T
b1111 `
b1111 a
b1111 h
1@
0>
0=
b0 G
b0 L
b0 l
1:
08
b1000000001000 m
1c
1W
b1111 )
b1111 E
b1111 M
b1111 P
b100000 k
0$
1,
#300
0,
#305
1A
15
b1000000111000 m
b1 [
0c
0W
b10001 #
b10001 6
b10001 Z
b10001 e
b10001 *
b10001 H
b10001 V
b10001 f
b100010001 (
b100010001 D
b100010001 U
b100010001 g
b1 %
b1 7
b1 R
b1 X
b1 ^
b111 &
b111 ?
b111 Y
b111 \
b111 j
b111001 k
1$
1,
#310
0,
#315
0A
05
b1000000001000 m
b1010 ]
b100 [
1c
1W
b101001010 (
b101001010 D
b101001010 U
b101001010 g
b1001010 #
b1001010 6
b1001010 Z
b1001010 e
b10010 *
b10010 H
b10010 V
b10010 f
b111000 k
0$
1,
#320
0,
#325
b1010 C
b1010 K
b1010 O
b1010 S
b1010 N
b1010 !
b1010 3
b1010 J
b1010 Q
b1010 T
b1010 `
b1010 a
b1010 h
0@
1>
1=
b10 G
b10 L
b10 l
0:
18
b11010000010 m
b10 ]
b111 [
0c
0W
b1110010 #
b1110010 6
b1110010 Z
b1110010 e
b10011 *
b10011 H
b10011 V
b10011 f
b101001110010 (
b101001110010 D
b101001110010 U
b101001110010 g
b1010 %
b1010 7
b1010 R
b1010 X
b1010 ^
b100 &
b100 ?
b100 Y
b100 \
b100 j
b100001 k
1$
1,
#330
0,
#335
b1010 !
b1010 3
b1010 J
b1010 Q
b1010 T
b1010 `
b1010 a
b1010 h
1@
0>
0=
b0 G
b0 L
b0 l
1:
08
b1000000001000 m
1c
1W
b1010 )
b1010 E
b1010 M
b1010 P
b100000 k
0$
1,
#340
0,
#345
1A
15
b1000000111000 m
b10 [
0c
0W
b100010 #
b100010 6
b100010 Z
b100010 e
b10100 *
b10100 H
b10100 V
b10100 f
b1000100010 (
b1000100010 D
b1000100010 U
b1000100010 g
b10 %
b10 7
b10 R
b10 X
b10 ^
b111 &
b111 ?
b111 Y
b111 \
b111 j
b111001 k
1$
1,
#350
0,
#355
0A
05
b1000000001000 m
b1 ]
b100 [
1c
1W
b1001000001 (
b1001000001 D
b1001000001 U
b1001000001 g
b1000001 #
b1000001 6
b1000001 Z
b1000001 e
b10101 *
b10101 H
b10101 V
b10101 f
b111000 k
0$
1,
#360
0,
#365
b1 C
b1 K
b1 O
b1 S
b1 N
b1 !
b1 3
b1 J
b1 Q
b1 T
b1 `
b1 a
b1 h
0@
1>
1=
b10 G
b10 L
b10 l
0:
18
b11010000010 m
b11 ]
b111 [
0c
0W
b1110011 #
b1110011 6
b1110011 Z
b1110011 e
b10110 *
b10110 H
b10110 V
b10110 f
b101110011 (
b101110011 D
b101110011 U
b101110011 g
b1 %
b1 7
b1 R
b1 X
b1 ^
b100 &
b100 ?
b100 Y
b100 \
b100 j
b100001 k
1$
1,
#370
0,
#375
b1 !
b1 3
b1 J
b1 Q
b1 T
b1 `
b1 a
b1 h
1@
0>
0=
b0 G
b0 L
b0 l
1:
08
b1000000001000 m
1c
1W
b1 )
b1 E
b1 M
b1 P
b100000 k
0$
1,
#380
0,
#385
1A
15
b1000000111000 m
b11 [
0c
0W
b110011 #
b110011 6
b110011 Z
b110011 e
b10111 *
b10111 H
b10111 V
b10111 f
b1100110011 (
b1100110011 D
b1100110011 U
b1100110011 g
b11 %
b11 7
b11 R
b11 X
b11 ^
b111 &
b111 ?
b111 Y
b111 \
b111 j
b111001 k
1$
1,
#390
0,
#395
0A
05
b1000000001000 m
b0 ]
b110 [
1c
1W
b1101100000 (
b1101100000 D
b1101100000 U
b1101100000 g
b1100000 #
b1100000 6
b1100000 Z
b1100000 e
b11000 *
b11000 H
b11000 V
b11000 f
b111000 k
0$
1,
#400
0,
#405
0F
b1110 C
b1110 K
b1110 O
b1110 S
b1110 N
b1110 i
b1110 !
b1110 3
b1110 J
b1110 Q
b1110 T
b1110 `
b1110 a
b1110 h
1>
1=
b10 G
b10 L
b10 l
1A
0:
b1011010100000 m
b0 [
0c
0W
b0 #
b0 6
b0 Z
b0 e
b11001 *
b11001 H
b11001 V
b11001 f
b0 (
b0 D
b0 U
b0 g
b0 %
b0 7
b0 R
b0 X
b0 ^
b110 &
b110 ?
b110 Y
b110 \
b110 j
b110001 k
1$
1,
#410
0,
#415
b1110 !
b1110 3
b1110 J
b1110 Q
b1110 T
b1110 `
b1110 a
b1110 h
0>
0=
b0 G
b0 L
b0 l
0A
1:
bx i
b1000000001000 m
b1 ]
b110 [
1c
1W
b1100001 (
b1100001 D
b1100001 U
b1100001 g
b1100001 #
b1100001 6
b1100001 Z
b1100001 e
b11010 *
b11010 H
b11010 V
b11010 f
b1110 )
b1110 E
b1110 M
b1110 P
b110000 k
0$
1,
#420
0,
#425
0F
b1111 C
b1111 K
b1111 O
b1111 S
b1111 N
b1111 i
b1111 !
b1111 3
b1111 J
b1111 Q
b1111 T
b1111 `
b1111 a
b1111 h
1>
1=
b10 G
b10 L
b10 l
1A
0:
b1011010100000 m
b1 [
0c
0W
b10001 #
b10001 6
b10001 Z
b10001 e
b11011 *
b11011 H
b11011 V
b11011 f
b100010001 (
b100010001 D
b100010001 U
b100010001 g
b1 %
b1 7
b1 R
b1 X
b1 ^
b110001 k
1$
1,
#430
0,
#435
b1111 !
b1111 3
b1111 J
b1111 Q
b1111 T
b1111 `
b1111 a
b1111 h
0>
0=
b0 G
b0 L
b0 l
0A
1:
bx i
b1000000001000 m
b10 ]
b110 [
1c
1W
b101100010 (
b101100010 D
b101100010 U
b101100010 g
b1100010 #
b1100010 6
b1100010 Z
b1100010 e
b11100 *
b11100 H
b11100 V
b11100 f
b1111 )
b1111 E
b1111 M
b1111 P
b110000 k
0$
1,
#440
0,
#445
0F
b1010 C
b1010 K
b1010 O
b1010 S
b1010 N
b1010 i
b1010 !
b1010 3
b1010 J
b1010 Q
b1010 T
b1010 `
b1010 a
b1010 h
1>
1=
b10 G
b10 L
b10 l
1A
0:
b1011010100000 m
b10 [
0c
0W
b100010 #
b100010 6
b100010 Z
b100010 e
b11101 *
b11101 H
b11101 V
b11101 f
b1000100010 (
b1000100010 D
b1000100010 U
b1000100010 g
b10 %
b10 7
b10 R
b10 X
b10 ^
b110001 k
1$
1,
#450
0,
#455
b1010 !
b1010 3
b1010 J
b1010 Q
b1010 T
b1010 `
b1010 a
b1010 h
0>
0=
b0 G
b0 L
b0 l
0A
1:
bx i
b1000000001000 m
b11 ]
b110 [
1c
1W
b1001100011 (
b1001100011 D
b1001100011 U
b1001100011 g
b1100011 #
b1100011 6
b1100011 Z
b1100011 e
b11110 *
b11110 H
b11110 V
b11110 f
b1010 )
b1010 E
b1010 M
b1010 P
b110000 k
0$
1,
#460
0,
#465
0F
b1 C
b1 K
b1 O
b1 S
b1 N
b1 i
b1 !
b1 3
b1 J
b1 Q
b1 T
b1 `
b1 a
b1 h
1>
1=
b10 G
b10 L
b10 l
1A
0:
b1011010100000 m
b11 [
0c
0W
b110011 #
b110011 6
b110011 Z
b110011 e
b11111 *
b11111 H
b11111 V
b11111 f
b1100110011 (
b1100110011 D
b1100110011 U
b1100110011 g
b11 %
b11 7
b11 R
b11 X
b11 ^
b110001 k
1$
1,
#470
0,
#475
b1 !
b1 3
b1 J
b1 Q
b1 T
b1 `
b1 a
b1 h
0>
0=
b0 G
b0 L
b0 l
0A
1:
bx i
b1000000001000 m
b1010 ]
b100 [
1c
1W
b1101001010 (
b1101001010 D
b1101001010 U
b1101001010 g
b1001010 #
b1001010 6
b1001010 Z
b1001010 e
b100000 *
b100000 H
b100000 V
b100000 f
b1 )
b1 E
b1 M
b1 P
b110000 k
0$
1,
#476
b111100000 2
#480
0,
#485
b1010 C
b1010 K
b1010 O
b1010 S
b1010 N
b1010 !
b1010 3
b1010 J
b1010 Q
b1010 T
b1010 `
b1010 a
b1010 h
0@
1>
1=
b10 G
b10 L
b10 l
0:
18
b11010000010 m
b10 ]
b1111 [
0c
0W
b11110010 #
b11110010 6
b11110010 Z
b11110010 e
b100001 *
b100001 H
b100001 V
b100001 f
b101011110010 (
b101011110010 D
b101011110010 U
b101011110010 g
b1010 %
b1010 7
b1010 R
b1010 X
b1010 ^
b100 &
b100 ?
b100 Y
b100 \
b100 j
b100001 k
1$
1,
#490
0,
#495
b1010 !
b1010 3
b1010 J
b1010 Q
b1010 T
b1010 `
b1010 a
b1010 h
1@
0>
0=
b0 G
b0 L
b0 l
1:
08
b1000000001000 m
1c
1W
b1010 )
b1010 E
b1010 M
b1010 P
b100000 k
0$
1,
#500
0,
#505
0F
b101 C
b101 K
b101 O
b101 S
b101 N
b1010 i
b1010 !
b1010 3
b1010 J
b1010 Q
b1010 T
b1010 `
b1010 a
b1010 h
1>
1=
b100 G
b100 L
b100 l
1A
0:
b1011100100000 m
b10 [
0c
0W
b100010 #
b100010 6
b100010 Z
b100010 e
b100010 *
b100010 H
b100010 V
b100010 f
b1000100010 (
b1000100010 D
b1000100010 U
b1000100010 g
b10 %
b10 7
b10 R
b10 X
b10 ^
b1111 &
b1111 ?
b1111 Y
b1111 \
b1111 j
b1111001 k
1$
1,
#510
0,
#515
0F
b101 !
b101 3
b101 J
b101 Q
b101 T
b101 `
b101 a
b101 h
b101 C
b101 K
b101 O
b101 S
0>
0=
b0 G
b0 L
b0 l
0A
1:
bx i
b101 N
b1000000001000 m
b1111 ]
b100 [
1c
1W
b1001001111 (
b1001001111 D
b1001001111 U
b1001001111 g
b1001111 #
b1001111 6
b1001111 Z
b1001111 e
b100011 *
b100011 H
b100011 V
b100011 f
b101 )
b101 E
b101 M
b101 P
b1111000 k
0$
1,
#516
b1000001000 2
#520
0,
#525
b1111 C
b1111 K
b1111 O
b1111 S
b1111 N
b1111 !
b1111 3
b1111 J
b1111 Q
b1111 T
b1111 `
b1111 a
b1111 h
0@
1>
1=
b10 G
b10 L
b10 l
0:
18
b11010000010 m
b11 ]
b1011 [
0c
0W
b10110011 #
b10110011 6
b10110011 Z
b10110011 e
b100100 *
b100100 H
b100100 V
b100100 f
b111110110011 (
b111110110011 D
b111110110011 U
b111110110011 g
b1111 %
b1111 7
b1111 R
b1111 X
b1111 ^
b100 &
b100 ?
b100 Y
b100 \
b100 j
b100001 k
1$
1,
#530
0,
#535
b1111 !
b1111 3
b1111 J
b1111 Q
b1111 T
b1111 `
b1111 a
b1111 h
1@
0>
0=
b0 G
b0 L
b0 l
1:
08
b1000000001000 m
1c
1W
b1111 )
b1111 E
b1111 M
b1111 P
b100000 k
0$
1,
#540
0,
#545
1F
b0 C
b0 K
b0 O
b0 S
1B
b10000 N
b1 i
b1 !
b1 3
b1 J
b1 Q
b1 T
b1 `
b1 a
b1 h
1>
1=
b11 G
b11 L
b11 l
1A
0:
b1011011100000 m
b11 [
0c
0W
b110011 #
b110011 6
b110011 Z
b110011 e
b100101 *
b100101 H
b100101 V
b100101 f
b1100110011 (
b1100110011 D
b1100110011 U
b1100110011 g
b11 %
b11 7
b11 R
b11 X
b11 ^
b1011 &
b1011 ?
b1011 Y
b1011 \
b1011 j
b1011001 k
1$
1,
#550
0,
